\relax 
\@writefile{lof}{\contentsline {figure}{\numberline {1}{\ignorespaces a plot\relax }}{2}{}\protected@file@percent }
\providecommand*\caption@xref[2]{\@setref\relax\@undefined{#1}}
\newlabel{fig:mesh1}{{1}{2}}
\@writefile{toc}{\contentsline {section}{\numberline {1}Introduction}{2}{}\protected@file@percent }
\@writefile{toc}{\contentsline {section}{Unnmbered Section}{2}{}\protected@file@percent }
\citation{name1}
\bibstyle{plain}
\bibdata{ref}
\bibcite{name1}{1}
\@writefile{lot}{\contentsline {table}{\numberline {1}{\ignorespaces Table to test caption and labels\relax }}{3}{}\protected@file@percent }
\newlabel{table:data}{{1}{3}}
\@writefile{toc}{\contentsline {section}{\numberline {2}Second Section}{3}{}\protected@file@percent }
\@writefile{toc}{\contentsline {subsection}{\numberline {2.1}First Subsecion}{3}{}\protected@file@percent }
\gdef \@abspage@last{3}
