This is BibTeX, Version 0.99d (TeX Live 2022)
Capacity: max_strings=200000, hash_size=200000, hash_prime=170003
The top-level auxiliary file: test.aux
The style file: plain.bst
Database file #1: ref.bib
You've used 1 entry,
            2118 wiz_defined-function locations,
            504 strings with 4036 characters,
and the built_in function-call counts, 269 in all, are:
= -- 24
> -- 13
< -- 0
+ -- 5
- -- 4
* -- 18
:= -- 55
add.period$ -- 3
call.type$ -- 1
change.case$ -- 5
chr.to.int$ -- 0
cite$ -- 1
duplicate$ -- 10
empty$ -- 19
format.name$ -- 4
if$ -- 51
int.to.chr$ -- 0
int.to.str$ -- 1
missing$ -- 1
newline$ -- 8
num.names$ -- 2
pop$ -- 3
preamble$ -- 1
purify$ -- 4
quote$ -- 0
skip$ -- 9
stack$ -- 0
substring$ -- 5
swap$ -- 1
text.length$ -- 0
text.prefix$ -- 0
top$ -- 0
type$ -- 4
warning$ -- 0
while$ -- 2
width$ -- 2
write$ -- 13
