\contentsline {section}{\numberline {1}Introduction}{2}{}%
\contentsline {section}{Unnmbered Section}{2}{}%
\contentsline {section}{\numberline {2}Second Section}{3}{}%
\contentsline {subsection}{\numberline {2.1}First Subsecion}{3}{}%
